%YAML 1.1
%TAG !u! tag:unity3d.com,2011:
--- !u!114 &-3442059833354208403
MonoBehaviour:
  m_ObjectHideFlags: 11
  m_CorrespondingSourceObject: {fileID: 0}
  m_PrefabInstance: {fileID: 0}
  m_PrefabAsset: {fileID: 0}
  m_GameObject: {fileID: 0}
  m_Enabled: 1
  m_EditorHideFlags: 0
  m_Script: {fileID: 11500000, guid: d0353a89b1f911e48b9e16bdc9f2e058, type: 3}
  m_Name: 
  m_EditorClassIdentifier: 
  version: 7
--- !u!21 &2100000
Material:
  serializedVersion: 8
  m_ObjectHideFlags: 0
  m_CorrespondingSourceObject: {fileID: 0}
  m_PrefabInstance: {fileID: 0}
  m_PrefabAsset: {fileID: 0}
  m_Name: M_Terrain_Swamp
  m_Shader: {fileID: -6465566751694194690, guid: d43f5d377646fce4388f1e512b10197a,
    type: 3}
  m_Parent: {fileID: 0}
  m_ModifiedSerializedProperties: 0
  m_ValidKeywords: []
  m_InvalidKeywords: []
  m_LightmapFlags: 4
  m_EnableInstancingVariants: 0
  m_DoubleSidedGI: 0
  m_CustomRenderQueue: -1
  stringTagMap: {}
  disabledShaderPasses: []
  m_LockedProperties: 
  m_SavedProperties:
    serializedVersion: 3
    m_TexEnvs:
    - _BaseMap:
        m_Texture: {fileID: 0}
        m_Scale: {x: 1, y: 1}
        m_Offset: {x: 0, y: 0}
    - _BumpMap:
        m_Texture: {fileID: 0}
        m_Scale: {x: 1, y: 1}
        m_Offset: {x: 0, y: 0}
    - _DetailAlbedoMap:
        m_Texture: {fileID: 0}
        m_Scale: {x: 1, y: 1}
        m_Offset: {x: 0, y: 0}
    - _DetailMask:
        m_Texture: {fileID: 0}
        m_Scale: {x: 1, y: 1}
        m_Offset: {x: 0, y: 0}
    - _DetailNormalMap:
        m_Texture: {fileID: 0}
        m_Scale: {x: 1, y: 1}
        m_Offset: {x: 0, y: 0}
    - _EmissionMap:
        m_Texture: {fileID: 0}
        m_Scale: {x: 1, y: 1}
        m_Offset: {x: 0, y: 0}
    - _MainTex:
        m_Texture: {fileID: 0}
        m_Scale: {x: 1, y: 1}
        m_Offset: {x: 0, y: 0}
    - _MetallicGlossMap:
        m_Texture: {fileID: 0}
        m_Scale: {x: 1, y: 1}
        m_Offset: {x: 0, y: 0}
    - _OcclusionMap:
        m_Texture: {fileID: 0}
        m_Scale: {x: 1, y: 1}
        m_Offset: {x: 0, y: 0}
    - _ParallaxMap:
        m_Texture: {fileID: 0}
        m_Scale: {x: 1, y: 1}
        m_Offset: {x: 0, y: 0}
    - _SampleTexture2D_10ec016c52eb4435b047f004ab9fbe59_Texture_1_Texture2D:
        m_Texture: {fileID: 2800000, guid: 8e52e66b2cfd4bb41bbecb595dde16f6, type: 3}
        m_Scale: {x: 1, y: 1}
        m_Offset: {x: 0, y: 0}
    - _SampleTexture2D_4cf87d42a3e64502baf31c5c003c2018_Texture_1_Texture2D:
        m_Texture: {fileID: 2800000, guid: f2de5f9a6bc63894aaa6f9d570f6f4f5, type: 3}
        m_Scale: {x: 1, y: 1}
        m_Offset: {x: 0, y: 0}
    - _SampleTexture2D_dbcec1680b534d5a96ee8c422cedb54e_Texture_1_Texture2D:
        m_Texture: {fileID: 2800000, guid: 0b6f8c1aeb3c00c45ae3d9e5c7f3f742, type: 3}
        m_Scale: {x: 1, y: 1}
        m_Offset: {x: 0, y: 0}
    - _SpecGlossMap:
        m_Texture: {fileID: 0}
        m_Scale: {x: 1, y: 1}
        m_Offset: {x: 0, y: 0}
    - _Texture2DAsset_a11dc0776b354daaa7b7c75c57868e63_Out_0_Texture2D:
        m_Texture: {fileID: 0}
        m_Scale: {x: 1, y: 1}
        m_Offset: {x: 0, y: 0}
    - _TextureNormal:
        m_Texture: {fileID: 2800000, guid: fdd2c70c62c9ade4890bb9df0162e2f6, type: 3}
        m_Scale: {x: 1, y: 1}
        m_Offset: {x: 0, y: 0}
    - _TextureORM:
        m_Texture: {fileID: 2800000, guid: f1073da8605f7d248983c1e5839f198c, type: 3}
        m_Scale: {x: 1, y: 1}
        m_Offset: {x: 0, y: 0}
    - _TexturesSand:
        m_Texture: {fileID: 2800000, guid: 7a460681a670c8f4da9c946e88bdf602, type: 3}
        m_Scale: {x: 1, y: 1}
        m_Offset: {x: 0, y: 0}
    - unity_Lightmaps:
        m_Texture: {fileID: 0}
        m_Scale: {x: 1, y: 1}
        m_Offset: {x: 0, y: 0}
    - unity_LightmapsInd:
        m_Texture: {fileID: 0}
        m_Scale: {x: 1, y: 1}
        m_Offset: {x: 0, y: 0}
    - unity_ShadowMasks:
        m_Texture: {fileID: 0}
        m_Scale: {x: 1, y: 1}
        m_Offset: {x: 0, y: 0}
    m_Ints: []
    m_Floats:
    - _AOContrast: 1
    - _AlphaClip: 0
    - _AlphaToMask: 0
    - _AmbientEnvironmentMultiplier: 1
    - _Blend: 0
    - _BlendModePreserveSpecular: 1
    - _BumpScale: 1
    - _ClearCoatMask: 0
    - _ClearCoatSmoothness: 0
    - _Cull: 2
    - _Cutoff: 0.5
    - _DetailAlbedoMapScale: 1
    - _DetailNormalMapScale: 1
    - _DstBlend: 0
    - _DstBlendAlpha: 0
    - _EdgeDiffuse: 0.001
    - _EdgeDistanceAttenuation: 0.001
    - _EdgeRim: 0.001
    - _EdgeShadowAttenuation: 1
    - _EdgeSpecular: 0.001
    - _EnvironmentReflections: 1
    - _GlossMapScale: 0
    - _Glossiness: 0
    - _GlossyReflections: 0
    - _HasCelShading: 0
    - _MaskContrast: 5
    - _MaskScale: 1.5
    - _Metallic: 0
    - _NoiseContrast: 5
    - _Noise_Scale: 50
    - _Normal_Int: 0.3
    - _OcclusionStrength: 1
    - _Parallax: 0.005
    - _QueueControl: 0
    - _QueueOffset: 0
    - _ReceiveShadows: 1
    - _RimAmount: 0.25
    - _RimStrength: 1
    - _RimThreshold: 0.15
    - _SandScale: 8
    - _Smooth: 0.2
    - _Smoothness: 0.5
    - _SmoothnessTextureChannel: 0
    - _SpecularHighlights: 1
    - _SrcBlend: 1
    - _SrcBlendAlpha: 1
    - _Surface: 0
    - _VertexMult: 0.1
    - _WorkflowMode: 1
    - _ZWrite: 1
    m_Colors:
    - _AOColor: {r: 0.58431375, g: 0.5137255, b: 0.49803922, a: 0}
    - _AmbientColor: {r: 0, g: 0, b: 0, a: 0}
    - _BaseColor: {r: 1, g: 1, b: 1, a: 1}
    - _Color: {r: 0.7224546, g: 0.77574456, b: 0.8018868, a: 1}
    - _EmissionColor: {r: 0, g: 0, b: 0, a: 1}
    - _MaskColor_1: {r: 0.5748447, g: 0.617, b: 0.5997728, a: 0}
    - _MaskColor_2: {r: 0.619694, g: 0.6883123, b: 0.766, a: 0}
    - _MaskColor_3: {r: 0.6469167, g: 0.6073201, b: 0.72300005, a: 0}
    - _Noise_Color: {r: 0.9411765, g: 0.9685326, b: 1, a: 0}
    - _SpecColor: {r: 0.19999996, g: 0.19999996, b: 0.19999996, a: 1}
  m_BuildTextureStacks: []
