%YAML 1.1
%TAG !u! tag:unity3d.com,2011:
--- !u!1 &9149581134674951858
GameObject:
  m_ObjectHideFlags: 0
  m_CorrespondingSourceObject: {fileID: 0}
  m_PrefabInstance: {fileID: 0}
  m_PrefabAsset: {fileID: 0}
  serializedVersion: 6
  m_Component:
  - component: {fileID: 1282920013156347928}
  - component: {fileID: 6564400745249674637}
  - component: {fileID: 5233167359891190855}
  - component: {fileID: 5804918942324131428}
  m_Layer: 6
  m_Name: InteractableDialogue
  m_TagString: Untagged
  m_Icon: {fileID: 0}
  m_NavMeshLayer: 0
  m_StaticEditorFlags: 0
  m_IsActive: 1
--- !u!4 &1282920013156347928
Transform:
  m_ObjectHideFlags: 0
  m_CorrespondingSourceObject: {fileID: 0}
  m_PrefabInstance: {fileID: 0}
  m_PrefabAsset: {fileID: 0}
  m_GameObject: {fileID: 9149581134674951858}
  serializedVersion: 2
  m_LocalRotation: {x: -0, y: -0, z: -0, w: 1}
  m_LocalPosition: {x: 0, y: 0, z: 0}
  m_LocalScale: {x: 1, y: 1, z: 1}
  m_ConstrainProportionsScale: 0
  m_Children: []
  m_Father: {fileID: 0}
  m_LocalEulerAnglesHint: {x: 0, y: 0, z: 0}
--- !u!114 &6564400745249674637
MonoBehaviour:
  m_ObjectHideFlags: 0
  m_CorrespondingSourceObject: {fileID: 0}
  m_PrefabInstance: {fileID: 0}
  m_PrefabAsset: {fileID: 0}
  m_GameObject: {fileID: 9149581134674951858}
  m_Enabled: 1
  m_EditorHideFlags: 0
  m_Script: {fileID: 11500000, guid: b37bc3dc0bc2420894f451d2c64431dc, type: 3}
  m_Name: 
  m_EditorClassIdentifier: 
  dialogueData: {fileID: 11400000, guid: ee061f5030be67148822c8a1161e8342, type: 2}
--- !u!114 &5233167359891190855
MonoBehaviour:
  m_ObjectHideFlags: 0
  m_CorrespondingSourceObject: {fileID: 0}
  m_PrefabInstance: {fileID: 0}
  m_PrefabAsset: {fileID: 0}
  m_GameObject: {fileID: 9149581134674951858}
  m_Enabled: 1
  m_EditorHideFlags: 0
  m_Script: {fileID: 11500000, guid: 696bf87bd502416ba998ab7a19d447ae, type: 3}
  m_Name: 
  m_EditorClassIdentifier: 
  enableOnAwake: 1
  singleUse: 0
  cooldown: 1
  OnInteract:
    m_PersistentCalls:
      m_Calls:
      - m_Target: {fileID: 6564400745249674637}
        m_TargetAssemblyTypeName: _Project.Scripts.Core.NarrativeSystem.DialogueActionable,
          Assembly-CSharp
        m_MethodName: PerformAction
        m_Mode: 1
        m_Arguments:
          m_ObjectArgument: {fileID: 0}
          m_ObjectArgumentAssemblyTypeName: UnityEngine.Object, UnityEngine
          m_IntArgument: 0
          m_FloatArgument: 0
          m_StringArgument: 
          m_BoolArgument: 0
        m_CallState: 2
  detectorSettings: {fileID: 11400000, guid: 6c22d56526a76f14283e71f859d86ca9, type: 2}
--- !u!135 &5804918942324131428
SphereCollider:
  m_ObjectHideFlags: 0
  m_CorrespondingSourceObject: {fileID: 0}
  m_PrefabInstance: {fileID: 0}
  m_PrefabAsset: {fileID: 0}
  m_GameObject: {fileID: 9149581134674951858}
  m_Material: {fileID: 0}
  m_IncludeLayers:
    serializedVersion: 2
    m_Bits: 0
  m_ExcludeLayers:
    serializedVersion: 2
    m_Bits: 0
  m_LayerOverridePriority: 0
  m_IsTrigger: 1
  m_ProvidesContacts: 0
  m_Enabled: 1
  serializedVersion: 3
  m_Radius: 0.50000006
  m_Center: {x: 0, y: 0, z: 0}
