%YAML 1.1
%TAG !u! tag:unity3d.com,2011:
--- !u!114 &11400000
MonoBehaviour:
  m_ObjectHideFlags: 0
  m_CorrespondingSourceObject: {fileID: 0}
  m_PrefabInstance: {fileID: 0}
  m_PrefabAsset: {fileID: 0}
  m_GameObject: {fileID: 0}
  m_Enabled: 1
  m_EditorHideFlags: 0
  m_Script: {fileID: 11500000, guid: 2c653666b97243a69b82ed56a356ca12, type: 3}
  m_Name: ScrapDetectorSettings
  m_EditorClassIdentifier: 
  detectionMask:
    serializedVersion: 2
    m_Bits: 64
  radius: 4
  frameRate: 0.1
  maxDetectableColliders: 10
  sortByDistance: 1
