%YAML 1.1
%TAG !u! tag:unity3d.com,2011:
--- !u!114 &11400000
MonoBehaviour:
  m_ObjectHideFlags: 0
  m_CorrespondingSourceObject: {fileID: 0}
  m_PrefabInstance: {fileID: 0}
  m_PrefabAsset: {fileID: 0}
  m_GameObject: {fileID: 0}
  m_Enabled: 1
  m_EditorHideFlags: 0
  m_Script: {fileID: 11500000, guid: 9557cc116087473ea11c4e6beaf2a718, type: 3}
  m_Name: SampleEnemyDetectionSettings
  m_EditorClassIdentifier: 
  sightDistance: 13
  detectionAreaAngle: 90
  obstaclesLayerMaks:
    serializedVersion: 2
    m_Bits: 2304
  detectionRadiusDetectorSettings: {fileID: 11400000, guid: eb19cc5d12447f74c9ed31a8fdac1db0,
    type: 2}
  secondarySenseDetectorSettings: {fileID: 11400000, guid: c82b613bfea943c458e999afcafe36dc,
    type: 2}
  reach: 2
