%YAML 1.1
%TAG !u! tag:unity3d.com,2011:
--- !u!114 &-990463819882739715
MonoBehaviour:
  m_ObjectHideFlags: 11
  m_CorrespondingSourceObject: {fileID: 0}
  m_PrefabInstance: {fileID: 0}
  m_PrefabAsset: {fileID: 0}
  m_GameObject: {fileID: 0}
  m_Enabled: 1
  m_EditorHideFlags: 0
  m_Script: {fileID: 11500000, guid: d0353a89b1f911e48b9e16bdc9f2e058, type: 3}
  m_Name: 
  m_EditorClassIdentifier: 
  version: 7
--- !u!21 &2100000
Material:
  serializedVersion: 8
  m_ObjectHideFlags: 0
  m_CorrespondingSourceObject: {fileID: 0}
  m_PrefabInstance: {fileID: 0}
  m_PrefabAsset: {fileID: 0}
  m_Name: M_JunkSmall
  m_Shader: {fileID: -6465566751694194690, guid: 52e9c0b78e4041b468931f5a12b2342b,
    type: 3}
  m_Parent: {fileID: 0}
  m_ModifiedSerializedProperties: 0
  m_ValidKeywords: []
  m_InvalidKeywords: []
  m_LightmapFlags: 4
  m_EnableInstancingVariants: 0
  m_DoubleSidedGI: 0
  m_CustomRenderQueue: -1
  stringTagMap: {}
  disabledShaderPasses: []
  m_LockedProperties: 
  m_SavedProperties:
    serializedVersion: 3
    m_TexEnvs:
    - _BaseMap:
        m_Texture: {fileID: 0}
        m_Scale: {x: 1, y: 1}
        m_Offset: {x: 0, y: 0}
    - _BumpMap:
        m_Texture: {fileID: 0}
        m_Scale: {x: 1, y: 1}
        m_Offset: {x: 0, y: 0}
    - _DetailAlbedoMap:
        m_Texture: {fileID: 0}
        m_Scale: {x: 1, y: 1}
        m_Offset: {x: 0, y: 0}
    - _DetailMask:
        m_Texture: {fileID: 0}
        m_Scale: {x: 1, y: 1}
        m_Offset: {x: 0, y: 0}
    - _DetailNormalMap:
        m_Texture: {fileID: 0}
        m_Scale: {x: 1, y: 1}
        m_Offset: {x: 0, y: 0}
    - _EmissionMap:
        m_Texture: {fileID: 0}
        m_Scale: {x: 1, y: 1}
        m_Offset: {x: 0, y: 0}
    - _MainTex:
        m_Texture: {fileID: 0}
        m_Scale: {x: 1, y: 1}
        m_Offset: {x: 0, y: 0}
    - _MetallicGlossMap:
        m_Texture: {fileID: 0}
        m_Scale: {x: 1, y: 1}
        m_Offset: {x: 0, y: 0}
    - _OcclusionMap:
        m_Texture: {fileID: 0}
        m_Scale: {x: 1, y: 1}
        m_Offset: {x: 0, y: 0}
    - _ParallaxMap:
        m_Texture: {fileID: 0}
        m_Scale: {x: 1, y: 1}
        m_Offset: {x: 0, y: 0}
    - _SpecGlossMap:
        m_Texture: {fileID: 0}
        m_Scale: {x: 1, y: 1}
        m_Offset: {x: 0, y: 0}
    - _Texture2DAsset_e87ba1e6c6d64e17a9b091447d3cb57f_Out_0_Texture2D:
        m_Texture: {fileID: 0}
        m_Scale: {x: 1, y: 1}
        m_Offset: {x: 0, y: 0}
    - unity_Lightmaps:
        m_Texture: {fileID: 0}
        m_Scale: {x: 1, y: 1}
        m_Offset: {x: 0, y: 0}
    - unity_LightmapsInd:
        m_Texture: {fileID: 0}
        m_Scale: {x: 1, y: 1}
        m_Offset: {x: 0, y: 0}
    - unity_ShadowMasks:
        m_Texture: {fileID: 0}
        m_Scale: {x: 1, y: 1}
        m_Offset: {x: 0, y: 0}
    m_Ints: []
    m_Floats:
    - _AlphaClip: 0
    - _AlphaToMask: 0
    - _AmbientEnvironmentMultiplier: 0.3
    - _Blend: 0
    - _BlendModePreserveSpecular: 1
    - _BumpScale: 1
    - _ClearCoatMask: 0
    - _ClearCoatSmoothness: 0
    - _Cull: 2
    - _Cutoff: 0.5
    - _DetailAlbedoMapScale: 1
    - _DetailNormalMapScale: 1
    - _DstBlend: 0
    - _DstBlendAlpha: 0
    - _EdgeDiffuse: 0
    - _EdgeDistanceAttenuation: 0
    - _EdgeRim: 0
    - _EdgeShadowAttenuation: 0
    - _EdgeSpecular: 0
    - _EdgeWear: 10
    - _EnvironmentReflections: 1
    - _Float: 0
    - _GlossMapScale: 0
    - _Glossiness: 0
    - _GlossyReflections: 0
    - _HasCelShading: 1
    - _HueMultiply: 150
    - _Metallic: 0.8
    - _NoiseContrast: 1
    - _NoiseEdgeContrast: 50
    - _NoiseEdgeScale: 20
    - _NoiseScale: 7
    - _NoiseWearScale: 20
    - _OcclusionStrength: 1
    - _Parallax: 0.005
    - _QueueControl: 0
    - _QueueOffset: 0
    - _ReceiveShadows: 1
    - _RimAmount: 0
    - _RimStrength: 0
    - _RimThreshold: 0.01
    - _Smoothness: 0.5
    - _SmoothnessTextureChannel: 0
    - _SpecularHighlights: 1
    - _SrcBlend: 1
    - _SrcBlendAlpha: 1
    - _Surface: 0
    - _WearExtension: 1.5
    - _WorkflowMode: 1
    - _ZWrite: 1
    m_Colors:
    - _AOColor: {r: 0.8773585, g: 0.8773585, b: 0.8773585, a: 0}
    - _AmbientColor: {r: 0.039215688, g: 0, b: 0.047058824, a: 0}
    - _BaseColor: {r: 1, g: 1, b: 1, a: 1}
    - _Color: {r: 1, g: 1, b: 1, a: 1}
    - _Color_B: {r: 0.31132078, g: 0.2569865, b: 0.31132078, a: 1}
    - _Color_G: {r: 0.3584906, g: 0.3584906, b: 0.3584906, a: 1}
    - _Color_R: {r: 0.5471698, g: 0.3948914, b: 0.3948914, a: 1}
    - _EdgeColor: {r: 0.24705882, g: 0.21960784, b: 0.21960784, a: 0}
    - _EmissionColor: {r: 0, g: 0, b: 0, a: 1}
    - _GeneralColor: {r: 0.21698111, g: 0.21698111, b: 0.21698111, a: 0}
    - _NoiseColor: {r: 1, g: 1, b: 1, a: 0}
    - _SpecColor: {r: 0.19999996, g: 0.19999996, b: 0.19999996, a: 1}
    - _WearColor: {r: 0.5803922, g: 0.45882353, b: 0.47058824, a: 0}
  m_BuildTextureStacks: []
