%YAML 1.1
%TAG !u! tag:unity3d.com,2011:
--- !u!1001 &5578260384240417206
PrefabInstance:
  m_ObjectHideFlags: 0
  serializedVersion: 2
  m_Modification:
    serializedVersion: 3
    m_TransformParent: {fileID: 0}
    m_Modifications:
    - target: {fileID: -8679921383154817045, guid: bc39a661cf92e544db19ce23e69974f6,
        type: 3}
      propertyPath: m_LocalPosition.x
      value: 0
      objectReference: {fileID: 0}
    - target: {fileID: -8679921383154817045, guid: bc39a661cf92e544db19ce23e69974f6,
        type: 3}
      propertyPath: m_LocalPosition.y
      value: 0
      objectReference: {fileID: 0}
    - target: {fileID: -8679921383154817045, guid: bc39a661cf92e544db19ce23e69974f6,
        type: 3}
      propertyPath: m_LocalPosition.z
      value: 0
      objectReference: {fileID: 0}
    - target: {fileID: -8679921383154817045, guid: bc39a661cf92e544db19ce23e69974f6,
        type: 3}
      propertyPath: m_LocalRotation.w
      value: 1
      objectReference: {fileID: 0}
    - target: {fileID: -8679921383154817045, guid: bc39a661cf92e544db19ce23e69974f6,
        type: 3}
      propertyPath: m_LocalRotation.x
      value: 0
      objectReference: {fileID: 0}
    - target: {fileID: -8679921383154817045, guid: bc39a661cf92e544db19ce23e69974f6,
        type: 3}
      propertyPath: m_LocalRotation.y
      value: -0
      objectReference: {fileID: 0}
    - target: {fileID: -8679921383154817045, guid: bc39a661cf92e544db19ce23e69974f6,
        type: 3}
      propertyPath: m_LocalRotation.z
      value: -0
      objectReference: {fileID: 0}
    - target: {fileID: -8679921383154817045, guid: bc39a661cf92e544db19ce23e69974f6,
        type: 3}
      propertyPath: m_LocalEulerAnglesHint.x
      value: 0
      objectReference: {fileID: 0}
    - target: {fileID: -8679921383154817045, guid: bc39a661cf92e544db19ce23e69974f6,
        type: 3}
      propertyPath: m_LocalEulerAnglesHint.y
      value: 0
      objectReference: {fileID: 0}
    - target: {fileID: -8679921383154817045, guid: bc39a661cf92e544db19ce23e69974f6,
        type: 3}
      propertyPath: m_LocalEulerAnglesHint.z
      value: 0
      objectReference: {fileID: 0}
    - target: {fileID: -7511558181221131132, guid: bc39a661cf92e544db19ce23e69974f6,
        type: 3}
      propertyPath: m_Materials.Array.data[0]
      value: 
      objectReference: {fileID: 2100000, guid: dee472a81abd9ed46857a6214185352a, type: 2}
    - target: {fileID: 919132149155446097, guid: bc39a661cf92e544db19ce23e69974f6,
        type: 3}
      propertyPath: m_Name
      value: Cube_BasePivot
      objectReference: {fileID: 0}
    m_RemovedComponents: []
    m_RemovedGameObjects: []
    m_AddedGameObjects: []
    m_AddedComponents:
    - targetCorrespondingSourceObject: {fileID: 919132149155446097, guid: bc39a661cf92e544db19ce23e69974f6,
        type: 3}
      insertIndex: -1
      addedObject: {fileID: 2500809897244770621}
  m_SourcePrefab: {fileID: 100100000, guid: bc39a661cf92e544db19ce23e69974f6, type: 3}
--- !u!1 &4731206859565139175 stripped
GameObject:
  m_CorrespondingSourceObject: {fileID: 919132149155446097, guid: bc39a661cf92e544db19ce23e69974f6,
    type: 3}
  m_PrefabInstance: {fileID: 5578260384240417206}
  m_PrefabAsset: {fileID: 0}
--- !u!65 &2500809897244770621
BoxCollider:
  m_ObjectHideFlags: 0
  m_CorrespondingSourceObject: {fileID: 0}
  m_PrefabInstance: {fileID: 0}
  m_PrefabAsset: {fileID: 0}
  m_GameObject: {fileID: 4731206859565139175}
  m_Material: {fileID: 0}
  m_IncludeLayers:
    serializedVersion: 2
    m_Bits: 0
  m_ExcludeLayers:
    serializedVersion: 2
    m_Bits: 0
  m_LayerOverridePriority: 0
  m_IsTrigger: 0
  m_ProvidesContacts: 0
  m_Enabled: 1
  serializedVersion: 3
  m_Size: {x: 1, y: 1, z: 1}
  m_Center: {x: 0, y: 0.5, z: 0}
