%YAML 1.1
%TAG !u! tag:unity3d.com,2011:
--- !u!1001 &429895678735885329
PrefabInstance:
  m_ObjectHideFlags: 0
  serializedVersion: 2
  m_Modification:
    serializedVersion: 3
    m_TransformParent: {fileID: 0}
    m_Modifications:
    - target: {fileID: 209044120031041576, guid: 97906e7e2accaed4794843e5136e5bde,
        type: 3}
      propertyPath: m_Name
      value: Sphere_Green Variant
      objectReference: {fileID: 0}
    - target: {fileID: 697350035505267346, guid: 97906e7e2accaed4794843e5136e5bde,
        type: 3}
      propertyPath: m_LocalScale.x
      value: 1.1590999
      objectReference: {fileID: 0}
    - target: {fileID: 697350035505267346, guid: 97906e7e2accaed4794843e5136e5bde,
        type: 3}
      propertyPath: m_LocalScale.y
      value: 1.3695925
      objectReference: {fileID: 0}
    - target: {fileID: 697350035505267346, guid: 97906e7e2accaed4794843e5136e5bde,
        type: 3}
      propertyPath: m_LocalScale.z
      value: 1.1590999
      objectReference: {fileID: 0}
    - target: {fileID: 697350035505267346, guid: 97906e7e2accaed4794843e5136e5bde,
        type: 3}
      propertyPath: m_LocalPosition.x
      value: 71.53
      objectReference: {fileID: 0}
    - target: {fileID: 697350035505267346, guid: 97906e7e2accaed4794843e5136e5bde,
        type: 3}
      propertyPath: m_LocalPosition.y
      value: 10.46
      objectReference: {fileID: 0}
    - target: {fileID: 697350035505267346, guid: 97906e7e2accaed4794843e5136e5bde,
        type: 3}
      propertyPath: m_LocalPosition.z
      value: 200.1
      objectReference: {fileID: 0}
    - target: {fileID: 697350035505267346, guid: 97906e7e2accaed4794843e5136e5bde,
        type: 3}
      propertyPath: m_LocalRotation.w
      value: 0.9778765
      objectReference: {fileID: 0}
    - target: {fileID: 697350035505267346, guid: 97906e7e2accaed4794843e5136e5bde,
        type: 3}
      propertyPath: m_LocalRotation.x
      value: -0
      objectReference: {fileID: 0}
    - target: {fileID: 697350035505267346, guid: 97906e7e2accaed4794843e5136e5bde,
        type: 3}
      propertyPath: m_LocalRotation.y
      value: 0.20918342
      objectReference: {fileID: 0}
    - target: {fileID: 697350035505267346, guid: 97906e7e2accaed4794843e5136e5bde,
        type: 3}
      propertyPath: m_LocalRotation.z
      value: -0
      objectReference: {fileID: 0}
    - target: {fileID: 697350035505267346, guid: 97906e7e2accaed4794843e5136e5bde,
        type: 3}
      propertyPath: m_LocalEulerAnglesHint.x
      value: 0
      objectReference: {fileID: 0}
    - target: {fileID: 697350035505267346, guid: 97906e7e2accaed4794843e5136e5bde,
        type: 3}
      propertyPath: m_LocalEulerAnglesHint.y
      value: 24.149
      objectReference: {fileID: 0}
    - target: {fileID: 1866268109635729917, guid: 97906e7e2accaed4794843e5136e5bde,
        type: 3}
      propertyPath: m_Materials.Array.data[0]
      value: 
      objectReference: {fileID: 2100000, guid: 31274d62474a2f7418b6bfea3b4e0e23, type: 2}
    - target: {fileID: 3149081167621687182, guid: 97906e7e2accaed4794843e5136e5bde,
        type: 3}
      propertyPath: turnedOnMaterial
      value: 
      objectReference: {fileID: 2100000, guid: 31274d62474a2f7418b6bfea3b4e0e23, type: 2}
    - target: {fileID: 3149081167621687182, guid: 97906e7e2accaed4794843e5136e5bde,
        type: 3}
      propertyPath: turnedOffMaterial
      value: 
      objectReference: {fileID: 2100000, guid: 4ca7fd9cde7b18949ba36efaf4d69155, type: 2}
    m_RemovedComponents: []
    m_RemovedGameObjects: []
    m_AddedGameObjects: []
    m_AddedComponents: []
  m_SourcePrefab: {fileID: 100100000, guid: 97906e7e2accaed4794843e5136e5bde, type: 3}
