%YAML 1.1
%TAG !u! tag:unity3d.com,2011:
--- !u!114 &11400000
MonoBehaviour:
  m_ObjectHideFlags: 0
  m_CorrespondingSourceObject: {fileID: 0}
  m_PrefabInstance: {fileID: 0}
  m_PrefabAsset: {fileID: 0}
  m_GameObject: {fileID: 0}
  m_Enabled: 1
  m_EditorHideFlags: 0
  m_Script: {fileID: 11500000, guid: 9b50efb9357e4c1ebf0062cbe4eaa720, type: 3}
  m_Name: _WormCommonSettings
  m_EditorClassIdentifier: 
  maxHealth: 10
  BaseMovementSettings:
    speed: 2
    rotationSpeed: 360
  EngageMovementSettings:
    speed: 6
    rotationSpeed: 540
  Idle:
    isWaitTimeFixed: 1
    waitTimeRange: {x: 4.158416, y: 14.455446}
    fixedWaitTime: 6
    baseRotationAngle: 180
    rotationFrequency: 2
    rotationSpeed: 90
  setRandomDestinationRelativeToSelfSettings:
    searchDistance: 100
    pathSpread: 60000
  followCharacterSettings:
    repathRate: 0.1
  Attack:
    DamageAmount: 31
    waitToAttack: 0.65
  Investigate:
    waitTimeToInvestigate: 2
